Regression Analysis: MotorTrend_MPG
…
(Intercept) 12.3034 18.7179 0.6573 0.5181 cyl -0.1114 1.0450 -0.1066 0.9161 disp 0.0133 0.0179 0.7468 0.4635 hp -0.0215 0.0218 -0.9868 0.3350 drat 0.7871 1.6354 0.4813 0.6353 wt -3.7153 1.8944 -1.9612 0.0633 qsec 0.8210 0.7308 1.1234 0.2739 vs 0.3178 2.1045 0.1510 0.8814 am 2.5202 2.0567 1.2254 0.2340 gear 0.6554 1.4933 0.4389 0.6652 carb -0.1994 0.8288 -0.2406 0.8122

fit10glance

r.squared adj.r.squared sigma statistic p.value df 1 0.869 0.8066 2.6502 13.9325 0 11

Exhibit 9: ANOVA

The findings provided below for Model 4: mpg ~ factor(am) + wt + factor(cyl) + hp produce a p-value of 0.026935, which indicates that this model is significant. These variables further contribute to the accuracy of the model.

mpg.anova <- anova(fit1, fit2, fit3, fit4)
mpg

## # A tibble: 234 x 11
##    manufacturer      model displ  year   cyl      trans   drv   cty   hwy
##           <chr>      <chr> <dbl> <int> <int>      <chr> <chr> <int> <int>
##  1         audi         a4   1.8  1999     4   auto(l5)     f    18    29
##  2         audi         a4   1.8  1999     4 manual(m5)     f    21    29
##  3         audi         a4   2.0  2008     4 manual(m6)     f    20    31
##  4         audi         a4   2.0  2008     4   auto(av)     f    21    30
##  5         audi         a4   2.8  1999     6   auto(l5)     f    16    26
##  6         audi         a4   2.8  1999     6 manual(m5)     f    18    26
##  7         audi         a4   3.1  2008     6   auto(av)     f    18    27
##  8         audi a4 quattro   1.8  1999     4 manual(m5)     4    18    26
##  9         audi a4 quattro   1.8  1999     4   auto(l5)     4    16    25
## 10         audi a4 quattro   2.0  2008     4 manual(m6)     4    20    28
## # ... with 224 more rows, and 2 more variables: fl <chr>, class <chr>
…
